%YAML 1.1
%TAG !u! tag:unity3d.com,2011:
--- !u!114 &11400000
MonoBehaviour:
  m_ObjectHideFlags: 0
  m_CorrespondingSourceObject: {fileID: 0}
  m_PrefabInstance: {fileID: 0}
  m_PrefabAsset: {fileID: 0}
  m_GameObject: {fileID: 0}
  m_Enabled: 1
  m_EditorHideFlags: 0
  m_Script: {fileID: 11500000, guid: 7ac257cdd416ae549ac09dda42aeae3a, type: 3}
  m_Name: GameConfiguration
  m_EditorClassIdentifier: 
  cantidadEnemigos: 10
  vidaEnemigos: 10
  ataqueEnemigos: 0.01
  ataquePlayer: 3
  startVidaPlayer: 100
  speedPlayer: 100
  rotacionPower: 3
  rotacionLerp: 1
  horizontal: Horizontal
  vertical: Vertical
  apunta: Apunta
  fire: Fire
  corre: Corre
